{
  "entrypoints": {
    "base": {
      "js": [
        "./runtime.js",
        "./vendors~admin_custom~base.js",
        "./vendors~base.js",
        "./base.js"
      ],
      "css": [
        "./vendors~base.css",
        "./base.css"
      ]
    },
    "admin_custom": {
      "js": [
        "./runtime.js",
        "./vendors~admin_custom~base.js",
        "./0.js",
        "./vendors~admin_custom.js",
        "./admin_custom.js"
      ],
      "css": [
        "./0.css",
        "./admin_custom.css"
      ]
    }
  }
}